{
    "port": 1337,
    "contentDirectory": "content",
    "rootDir": ".",
    "presentationDirectory": "presentation",
    "authServer": "http://localhost:8080/FrontAuthWatcherWebService/rest/WatcherAuth"
}
